0
SECTION
2
HEADER
9
$INSUNITS
70
4
9
$ACADVER
1
AC1014
9
$HANDSEED
5
FFFF
0
ENDSEC
0
SECTION
2
TABLES
0
TABLE
2
VPORT
5
8
100
AcDbSymbolTable
0
ENDTAB
0
TABLE
2
LTYPE
5
5
100
AcDbSymbolTable
0
LTYPE
5
14
100
AcDbSymbolTableRecord
100
AcDbLinetypeTableRecord
2
BYBLOCK
70
0
0
LTYPE
5
15
100
AcDbSymbolTableRecord
100
AcDbLinetypeTableRecord
2
BYLAYER
70
0
0
ENDTAB
0
TABLE
2
LAYER
5
2
100
AcDbSymbolTable
70
2
0
LAYER
5
50
100
AcDbSymbolTableRecord
100
AcDbLayerTableRecord
2
0
70
0
6
CONTINUOUS
0
ENDTAB
0
TABLE
2
STYLE
5
3
100
AcDbSymbolTable
70
1
0
STYLE
5
11
100
AcDbSymbolTableRecord
100
AcDbTextStyleTableRecord
2
STANDARD
70
0
0
ENDTAB
0
TABLE
2
VIEW
5
6
100
AcDbSymbolTable
70
0
0
ENDTAB
0
TABLE
2
UCS
5
7
100
AcDbSymbolTable
70
0
0
ENDTAB
0
TABLE
2
APPID
5
9
100
AcDbSymbolTable
70
2
0
APPID
5
12
100
AcDbSymbolTableRecord
100
AcDbRegAppTableRecord
2
ACAD
70
0
0
ENDTAB
0
TABLE
2
DIMSTYLE
5
A
100
AcDbSymbolTable
70
1
0
ENDTAB
0
TABLE
2
BLOCK_RECORD
5
1
100
AcDbSymbolTable
70
1
0
BLOCK_RECORD
5
1F
100
AcDbSymbolTableRecord
100
AcDbBlockTableRecord
2
*MODEL_SPACE
0
BLOCK_RECORD
5
1B
100
AcDbSymbolTableRecord
100
AcDbBlockTableRecord
2
*PAPER_SPACE
0
ENDTAB
0
ENDSEC
0
SECTION
2
BLOCKS
0
BLOCK
5
20
100
AcDbEntity
100
AcDbBlockBegin
2
*MODEL_SPACE
0
ENDBLK
5
21
100
AcDbEntity
100
AcDbBlockEnd
0
BLOCK
5
1C
100
AcDbEntity
100
AcDbBlockBegin
2
*PAPER_SPACE
0
ENDBLK
5
1D
100
AcDbEntity
100
AcDbBlockEnd
0
ENDSEC
0
SECTION
2
ENTITIES
0
LINE
5
100
100
AcDbEntity
8
0
100
AcDbLine
10
63
20
100
30
0
11
63
21
107
31
0
0
LINE
5
101
100
AcDbEntity
8
0
100
AcDbLine
10
63
20
107
30
0
11
70
21
107
31
0
0
LINE
5
102
100
AcDbEntity
8
0
100
AcDbLine
10
70
20
107
30
0
11
70
21
100
31
0
0
LINE
5
103
100
AcDbEntity
8
0
100
AcDbLine
10
56
20
107
30
0
11
56
21
100
31
0
0
LINE
5
104
100
AcDbEntity
8
0
100
AcDbLine
10
56
20
100
30
0
11
63
21
100
31
0
0
LINE
5
105
100
AcDbEntity
8
0
100
AcDbLine
10
56
20
107
30
0
11
48.999999999999993
21
107
31
0
0
LINE
5
106
100
AcDbEntity
8
0
100
AcDbLine
10
48.999999999999993
20
107
30
0
11
48.999999999999993
21
100
31
0
0
LINE
5
107
100
AcDbEntity
8
0
100
AcDbLine
10
41.999999999999993
20
107
30
0
11
41.999999999999993
21
100
31
0
0
LINE
5
108
100
AcDbEntity
8
0
100
AcDbLine
10
41.999999999999993
20
100
30
0
11
48.999999999999993
21
100
31
0
0
LINE
5
109
100
AcDbEntity
8
0
100
AcDbLine
10
41.999999999999993
20
107
30
0
11
34.999999999999993
21
107
31
0
0
LINE
5
110
100
AcDbEntity
8
0
100
AcDbLine
10
34.999999999999993
20
107
30
0
11
34.999999999999993
21
100
31
0
0
LINE
5
111
100
AcDbEntity
8
0
100
AcDbLine
10
41.999999999999993
20
100
30
0
11
41.999999999999993
21
107
31
0
0
LINE
5
112
100
AcDbEntity
8
0
100
AcDbLine
10
27.999999999999989
20
100
30
0
11
34.999999999999993
21
100
31
0
0
LINE
5
113
100
AcDbEntity
8
0
100
AcDbLine
10
27.999999999999989
20
107
30
0
11
20.999999999999986
21
107
31
0
0
LINE
5
114
100
AcDbEntity
8
0
100
AcDbLine
10
27.999999999999989
20
100
30
0
11
27.999999999999989
21
107
31
0
0
LINE
5
115
100
AcDbEntity
8
0
100
AcDbLine
10
13.999999999999986
20
100
30
0
11
20.999999999999986
21
100
31
0
0
LINE
5
116
100
AcDbEntity
8
0
100
AcDbLine
10
20.999999999999986
20
100
30
0
11
20.999999999999986
21
107
31
0
0
LINE
5
117
100
AcDbEntity
8
0
100
AcDbLine
10
13.999999999999986
20
107
30
0
11
6.9999999999999849
21
107
31
0
0
LINE
5
118
100
AcDbEntity
8
0
100
AcDbLine
10
13.999999999999986
20
100
30
0
11
13.999999999999986
21
107
31
0
0
LINE
5
119
100
AcDbEntity
8
0
100
AcDbLine
10
6.9999999999999849
20
100
30
0
11
0
21
100
31
0
0
LINE
5
120
100
AcDbEntity
8
0
100
AcDbLine
10
63
20
-7.0000000000000009
30
0
11
70
21
-7.0000000000000009
31
0
0
LINE
5
121
100
AcDbEntity
8
0
100
AcDbLine
10
70
20
-7.0000000000000009
30
0
11
70
21
0
31
0
0
LINE
5
122
100
AcDbEntity
8
0
100
AcDbLine
10
63
20
0
30
0
11
56
21
0
31
0
0
LINE
5
123
100
AcDbEntity
8
0
100
AcDbLine
10
56
20
0
30
0
11
56
21
-7.0000000000000009
31
0
0
LINE
5
124
100
AcDbEntity
8
0
100
AcDbLine
10
63
20
-7.0000000000000009
30
0
11
63
21
0
31
0
0
LINE
5
125
100
AcDbEntity
8
0
100
AcDbLine
10
48.999999999999993
20
0
30
0
11
48.999999999999993
21
-7.0000000000000009
31
0
0
LINE
5
126
100
AcDbEntity
8
0
100
AcDbLine
10
48.999999999999993
20
-7.0000000000000009
30
0
11
56
21
-7.0000000000000009
31
0
0
LINE
5
127
100
AcDbEntity
8
0
100
AcDbLine
10
48.999999999999993
20
0
30
0
11
41.999999999999993
21
0
31
0
0
LINE
5
128
100
AcDbEntity
8
0
100
AcDbLine
10
34.999999999999993
20
0
30
0
11
34.999999999999993
21
-7.0000000000000009
31
0
0
LINE
5
129
100
AcDbEntity
8
0
100
AcDbLine
10
34.999999999999993
20
-7.0000000000000009
30
0
11
41.999999999999993
21
-7.0000000000000009
31
0
0
LINE
5
130
100
AcDbEntity
8
0
100
AcDbLine
10
41.999999999999993
20
-7.0000000000000009
30
0
11
41.999999999999993
21
0
31
0
0
LINE
5
131
100
AcDbEntity
8
0
100
AcDbLine
10
34.999999999999993
20
0
30
0
11
27.999999999999989
21
0
31
0
0
LINE
5
132
100
AcDbEntity
8
0
100
AcDbLine
10
27.999999999999989
20
0
30
0
11
27.999999999999989
21
-7.0000000000000009
31
0
0
LINE
5
133
100
AcDbEntity
8
0
100
AcDbLine
10
20.999999999999986
20
0
30
0
11
20.999999999999986
21
-7.0000000000000009
31
0
0
LINE
5
134
100
AcDbEntity
8
0
100
AcDbLine
10
20.999999999999986
20
-7.0000000000000009
30
0
11
27.999999999999989
21
-7.0000000000000009
31
0
0
LINE
5
135
100
AcDbEntity
8
0
100
AcDbLine
10
20.999999999999986
20
0
30
0
11
13.999999999999986
21
0
31
0
0
LINE
5
136
100
AcDbEntity
8
0
100
AcDbLine
10
6.9999999999999849
20
0
30
0
11
6.9999999999999849
21
-7.0000000000000009
31
0
0
LINE
5
137
100
AcDbEntity
8
0
100
AcDbLine
10
6.9999999999999849
20
-7.0000000000000009
30
0
11
13.999999999999986
21
-7.0000000000000009
31
0
0
LINE
5
138
100
AcDbEntity
8
0
100
AcDbLine
10
13.999999999999986
20
-7.0000000000000009
30
0
11
13.999999999999986
21
0
31
0
0
LINE
5
139
100
AcDbEntity
8
0
100
AcDbLine
10
6.9999999999999849
20
0
30
0
11
-7.0000000000000009
21
0
31
0
0
LINE
5
140
100
AcDbEntity
8
0
100
AcDbLine
10
6.9999999999999849
20
107
30
0
11
6.9999999999999849
21
100
31
0
0
LINE
5
141
100
AcDbEntity
8
0
100
AcDbLine
10
0
20
100
30
0
11
-7.0000000000000009
21
100
31
0
0
LINE
5
142
100
AcDbEntity
8
0
100
AcDbLine
10
-7.0000000000000009
20
100
30
0
11
-7.0000000000000009
21
90
31
0
0
LINE
5
143
100
AcDbEntity
8
0
100
AcDbLine
10
-7.0000000000000009
20
90
30
0
11
0
21
90
31
0
0
LINE
5
144
100
AcDbEntity
8
0
100
AcDbLine
10
-7.0000000000000009
20
0
30
0
11
-7.0000000000000009
21
10
31
0
0
LINE
5
145
100
AcDbEntity
8
0
100
AcDbLine
10
-7.0000000000000009
20
10
30
0
11
0
21
10
31
0
0
LINE
5
146
100
AcDbEntity
8
0
100
AcDbLine
10
0
20
85
30
0
11
-7.0000000000000009
21
85
31
0
0
LINE
5
147
100
AcDbEntity
8
0
100
AcDbLine
10
-7.0000000000000009
20
85
30
0
11
-7.0000000000000009
21
75
31
0
0
LINE
5
148
100
AcDbEntity
8
0
100
AcDbLine
10
-7.0000000000000009
20
75
30
0
11
0
21
75
31
0
0
LINE
5
149
100
AcDbEntity
8
0
100
AcDbLine
10
0
20
70
30
0
11
-7.0000000000000009
21
70
31
0
0
LINE
5
150
100
AcDbEntity
8
0
100
AcDbLine
10
-7.0000000000000009
20
70
30
0
11
-7.0000000000000009
21
60
31
0
0
LINE
5
151
100
AcDbEntity
8
0
100
AcDbLine
10
-7.0000000000000009
20
60
30
0
11
0
21
60
31
0
0
LINE
5
152
100
AcDbEntity
8
0
100
AcDbLine
10
0
20
55
30
0
11
-7.0000000000000009
21
55
31
0
0
LINE
5
153
100
AcDbEntity
8
0
100
AcDbLine
10
-7.0000000000000009
20
55
30
0
11
-7.0000000000000009
21
45
31
0
0
LINE
5
154
100
AcDbEntity
8
0
100
AcDbLine
10
-7.0000000000000009
20
45
30
0
11
0
21
45
31
0
0
LINE
5
155
100
AcDbEntity
8
0
100
AcDbLine
10
0
20
15
30
0
11
-7.0000000000000009
21
15
31
0
0
LINE
5
156
100
AcDbEntity
8
0
100
AcDbLine
10
-7.0000000000000009
20
15
30
0
11
-7.0000000000000009
21
25
31
0
0
LINE
5
157
100
AcDbEntity
8
0
100
AcDbLine
10
-7.0000000000000009
20
25
30
0
11
0
21
25
31
0
0
LINE
5
158
100
AcDbEntity
8
0
100
AcDbLine
10
0
20
30
30
0
11
-7.0000000000000009
21
30
31
0
0
LINE
5
159
100
AcDbEntity
8
0
100
AcDbLine
10
-7.0000000000000009
20
30
30
0
11
-7.0000000000000009
21
40
31
0
0
LINE
5
160
100
AcDbEntity
8
0
100
AcDbLine
10
-7.0000000000000009
20
40
30
0
11
0
21
40
31
0
0
LINE
5
161
100
AcDbEntity
8
0
100
AcDbLine
10
0
20
90
30
0
11
0
21
85
31
0
0
LINE
5
162
100
AcDbEntity
8
0
100
AcDbLine
10
0
20
75
30
0
11
0
21
70
31
0
0
LINE
5
163
100
AcDbEntity
8
0
100
AcDbLine
10
0
20
60
30
0
11
0
21
55
31
0
0
LINE
5
164
100
AcDbEntity
8
0
100
AcDbLine
10
0
20
45
30
0
11
0
21
40
31
0
0
LINE
5
165
100
AcDbEntity
8
0
100
AcDbLine
10
0
20
30
30
0
11
0
21
25
31
0
0
LINE
5
166
100
AcDbEntity
8
0
100
AcDbLine
10
0
20
15
30
0
11
0
21
10
31
0
0
LINE
5
167
100
AcDbEntity
8
0
100
AcDbLine
10
70
20
100
30
0
11
77
21
100
31
0
0
LINE
5
168
100
AcDbEntity
8
0
100
AcDbLine
10
77
20
100
30
0
11
77
21
90
31
0
0
LINE
5
169
100
AcDbEntity
8
0
100
AcDbLine
10
77
20
90
30
0
11
70
21
90
31
0
0
LINE
5
170
100
AcDbEntity
8
0
100
AcDbLine
10
70
20
85
30
0
11
77
21
85
31
0
0
LINE
5
171
100
AcDbEntity
8
0
100
AcDbLine
10
77
20
85
30
0
11
77
21
75
31
0
0
LINE
5
172
100
AcDbEntity
8
0
100
AcDbLine
10
77
20
75
30
0
11
70
21
75
31
0
0
LINE
5
173
100
AcDbEntity
8
0
100
AcDbLine
10
70
20
70
30
0
11
77
21
70
31
0
0
LINE
5
174
100
AcDbEntity
8
0
100
AcDbLine
10
77
20
70
30
0
11
77
21
60
31
0
0
LINE
5
175
100
AcDbEntity
8
0
100
AcDbLine
10
77
20
60
30
0
11
70
21
60
31
0
0
LINE
5
176
100
AcDbEntity
8
0
100
AcDbLine
10
70
20
55
30
0
11
77
21
55
31
0
0
LINE
5
177
100
AcDbEntity
8
0
100
AcDbLine
10
77
20
55
30
0
11
77
21
45
31
0
0
LINE
5
178
100
AcDbEntity
8
0
100
AcDbLine
10
77
20
45
30
0
11
70
21
45
31
0
0
LINE
5
179
100
AcDbEntity
8
0
100
AcDbLine
10
70
20
40
30
0
11
77
21
40
31
0
0
LINE
5
180
100
AcDbEntity
8
0
100
AcDbLine
10
77
20
40
30
0
11
77
21
30
31
0
0
LINE
5
181
100
AcDbEntity
8
0
100
AcDbLine
10
77
20
30
30
0
11
70
21
30
31
0
0
LINE
5
182
100
AcDbEntity
8
0
100
AcDbLine
10
70
20
25
30
0
11
77
21
25
31
0
0
LINE
5
183
100
AcDbEntity
8
0
100
AcDbLine
10
77
20
25
30
0
11
77
21
15
31
0
0
LINE
5
184
100
AcDbEntity
8
0
100
AcDbLine
10
77
20
15
30
0
11
70
21
15
31
0
0
LINE
5
185
100
AcDbEntity
8
0
100
AcDbLine
10
70
20
10
30
0
11
77
21
10
31
0
0
LINE
5
186
100
AcDbEntity
8
0
100
AcDbLine
10
77
20
10
30
0
11
77
21
0
31
0
0
LINE
5
187
100
AcDbEntity
8
0
100
AcDbLine
10
77
20
0
30
0
11
70
21
0
31
0
0
LINE
5
188
100
AcDbEntity
8
0
100
AcDbLine
10
70
20
90
30
0
11
70
21
85
31
0
0
LINE
5
189
100
AcDbEntity
8
0
100
AcDbLine
10
70
20
75
30
0
11
70
21
70
31
0
0
LINE
5
190
100
AcDbEntity
8
0
100
AcDbLine
10
70
20
60
30
0
11
70
21
55
31
0
0
LINE
5
191
100
AcDbEntity
8
0
100
AcDbLine
10
70
20
45
30
0
11
70
21
40
31
0
0
LINE
5
192
100
AcDbEntity
8
0
100
AcDbLine
10
70
20
30
30
0
11
70
21
25
31
0
0
LINE
5
193
100
AcDbEntity
8
0
100
AcDbLine
10
70
20
15
30
0
11
70
21
10
31
0
0
ENDSEC
0
SECTION
2
OBJECTS
0
DICTIONARY
5
C
100
AcDbDictionary
3
ACAD_GROUP
350
D
3
ACAD_MLINESTYLE
350
17
0
DICTIONARY
5
D
100
AcDbDictionary
0
DICTIONARY
5
1A
330
C
100
AcDbDictionary
0
DICTIONARY
5
17
100
AcDbDictionary
0
ENDSEC
0
EOF
