0
SECTION
2
HEADER
9
$INSUNITS
70
4
9
$ACADVER
1
AC1014
9
$HANDSEED
5
FFFF
0
ENDSEC
0
SECTION
2
TABLES
0
TABLE
2
VPORT
5
8
100
AcDbSymbolTable
0
ENDTAB
0
TABLE
2
LTYPE
5
5
100
AcDbSymbolTable
0
LTYPE
5
14
100
AcDbSymbolTableRecord
100
AcDbLinetypeTableRecord
2
BYBLOCK
70
0
0
LTYPE
5
15
100
AcDbSymbolTableRecord
100
AcDbLinetypeTableRecord
2
BYLAYER
70
0
0
ENDTAB
0
TABLE
2
LAYER
5
2
100
AcDbSymbolTable
70
2
0
LAYER
5
50
100
AcDbSymbolTableRecord
100
AcDbLayerTableRecord
2
0
70
0
6
CONTINUOUS
0
ENDTAB
0
TABLE
2
STYLE
5
3
100
AcDbSymbolTable
70
1
0
STYLE
5
11
100
AcDbSymbolTableRecord
100
AcDbTextStyleTableRecord
2
STANDARD
70
0
0
ENDTAB
0
TABLE
2
VIEW
5
6
100
AcDbSymbolTable
70
0
0
ENDTAB
0
TABLE
2
UCS
5
7
100
AcDbSymbolTable
70
0
0
ENDTAB
0
TABLE
2
APPID
5
9
100
AcDbSymbolTable
70
2
0
APPID
5
12
100
AcDbSymbolTableRecord
100
AcDbRegAppTableRecord
2
ACAD
70
0
0
ENDTAB
0
TABLE
2
DIMSTYLE
5
A
100
AcDbSymbolTable
70
1
0
ENDTAB
0
TABLE
2
BLOCK_RECORD
5
1
100
AcDbSymbolTable
70
1
0
BLOCK_RECORD
5
1F
100
AcDbSymbolTableRecord
100
AcDbBlockTableRecord
2
*MODEL_SPACE
0
BLOCK_RECORD
5
1B
100
AcDbSymbolTableRecord
100
AcDbBlockTableRecord
2
*PAPER_SPACE
0
ENDTAB
0
ENDSEC
0
SECTION
2
BLOCKS
0
BLOCK
5
20
100
AcDbEntity
100
AcDbBlockBegin
2
*MODEL_SPACE
0
ENDBLK
5
21
100
AcDbEntity
100
AcDbBlockEnd
0
BLOCK
5
1C
100
AcDbEntity
100
AcDbBlockBegin
2
*PAPER_SPACE
0
ENDBLK
5
1D
100
AcDbEntity
100
AcDbBlockEnd
0
ENDSEC
0
SECTION
2
ENTITIES
0
LWPOLYLINE
5
100
100
AcDbEntity
8
0
100
AcDbPolyline
90
92
70
1
43
0.0
10
14.445046002046276
20
168.46697795002007
10
9.4450460020462756
20
168.46697795002007
10
9.4450460020462756
20
171.46697795002012
10
-1.5549539979537386
20
171.46697795002012
10
-1.5549539979537386
20
168.46697795002007
10
-6.5549539979537386
20
168.46697795002007
10
-6.5549539979537386
20
171.46697795002012
10
-16.554953997953739
20
171.46697795002012
10
-16.554953997953739
20
168.46697795002007
10
-23.554953997953767
20
168.46697795002007
10
-23.554953997953767
20
178.46697795002007
10
-26.554953997953774
20
178.46697795002007
10
-26.554953997953774
20
181.46697795002012
10
-23.554953997953767
20
181.46697795002012
10
-23.554953997953767
20
191.46697795002012
10
-26.554953997953774
20
191.46697795002012
10
-26.554953997953774
20
194.46697795002009
10
-23.554953997953767
20
194.46697795002009
10
-23.554953997953767
20
204.46697795002009
10
-26.554953997953774
20
204.46697795002009
10
-26.554955860598923
20
207.46697795002012
10
-23.554953997953767
20
207.46697795002012
10
-23.554953997953767
20
217.46697795002009
10
-26.554953997953774
20
217.46697795002009
10
-26.554953997953774
20
220.46697795002012
10
-23.554953997953767
20
220.46697795002012
10
-23.554953997953767
20
230.46697795002012
10
-16.554953997953739
20
230.46697795002012
10
-16.554953997953739
20
227.46697795002012
10
-6.5549539979537386
20
227.46697795002012
10
-6.5549539979537386
20
230.46697795002012
10
-1.5549539979537386
20
230.46697795002012
10
-1.5549539979537386
20
227.46697795002012
10
9.4450460020462401
20
227.46697795002009
10
9.4450460020462401
20
230.46697795002012
10
14.445044750348721
20
230.46697795002012
10
14.445044750348721
20
227.46697795002009
10
25.445044988767282
20
227.46697795002009
10
25.445044988767282
20
230.46697795002012
10
30.445044988767282
20
230.46697795002012
10
30.445044988767282
20
227.46697795002009
10
41.445046002046269
20
227.46697795002009
10
41.445046002046269
20
230.46697795002012
10
46.445046002046269
20
230.46697795002012
10
46.445046002046269
20
227.46697795002009
10
57.445046002046247
20
227.46697795002009
10
57.445046002046247
20
230.46697795002012
10
62.445046002046247
20
230.46697795002012
10
62.445046002046247
20
227.46697795002009
10
73.445046002046269
20
227.46697795002009
10
73.445046002046269
20
230.46697795002012
10
78.445046002046269
20
230.46697795002012
10
78.445046002046269
20
227.46697795002009
10
88.445046002046269
20
227.46697795002009
10
88.445046002046269
20
230.46697795002012
10
95.445046002046254
20
230.46697795002012
10
95.445046002046254
20
220.46697795002012
10
98.445046002046269
20
220.46697795002012
10
98.445046002046269
20
217.46697795002009
10
95.445046002046254
20
217.46697795002009
10
95.445046002046254
20
207.46697795002009
10
98.445046002046269
20
207.46697795002009
10
98.445046002046269
20
204.46697795002009
10
95.445046002046254
20
204.46697795002009
10
95.445046002046254
20
194.46697795002009
10
98.445046002046269
20
194.46697795002009
10
98.445046002046269
20
191.46697795002012
10
95.445046002046254
20
191.46697795002012
10
95.445046002046254
20
181.46697795002012
10
98.445046002046269
20
181.46697795002012
10
98.445046002046269
20
178.46697795002007
10
95.445046002046254
20
178.46697795002007
10
95.445046002046254
20
168.46697795002007
10
88.445046002046269
20
168.46697795002007
10
88.445046002046269
20
171.46697795002012
10
78.445046002046269
20
171.46697795002012
10
78.445046002046269
20
168.46697795002007
10
73.445046002046269
20
168.46697795002007
10
73.445046002046269
20
171.46697795002012
10
62.445046002046247
20
171.46697795002012
10
62.445046002046247
20
168.46697795002007
10
57.445046002046247
20
168.46697795002007
10
57.445046002046247
20
171.46697795002012
10
46.445046002046269
20
171.46697795002012
10
46.445046002046269
20
168.46697795002007
10
41.445046002046269
20
168.46697795002007
10
41.445046002046269
20
171.46697795002012
10
30.445046002046254
20
171.46697795002012
10
30.445046002046254
20
168.46697795002007
10
25.445046002046254
20
168.46697795002007
10
25.445046002046254
20
171.46697795002012
10
14.445046002046276
20
171.46697795002012
0
ENDSEC
0
SECTION
2
OBJECTS
0
DICTIONARY
5
C
100
AcDbDictionary
3
ACAD_GROUP
350
D
3
ACAD_MLINESTYLE
350
17
0
DICTIONARY
5
D
100
AcDbDictionary
0
DICTIONARY
5
1A
330
C
100
AcDbDictionary
0
DICTIONARY
5
17
100
AcDbDictionary
0
ENDSEC
0
EOF
